%TF.GenerationSoftware,KiCad,Pcbnew,no-vcs-found-75b21d0~61~ubuntu14.04.1*%
%TF.CreationDate,2017-12-18T14:02:50+05:30*%
%TF.ProjectId,STM8_Flasher,53544D385F466C61736865722E6B6963,rev?*%
%TF.SameCoordinates,Original*%
%TF.FileFunction,Profile,NP*%
%FSLAX46Y46*%
G04 Gerber Fmt 4.6, Leading zero omitted, Abs format (unit mm)*
G04 Created by KiCad (PCBNEW no-vcs-found-75b21d0~61~ubuntu14.04.1) date Mon Dec 18 14:02:50 2017*
%MOMM*%
%LPD*%
G01*
G04 APERTURE LIST*
%ADD10C,0.150000*%
G04 APERTURE END LIST*
D10*
X124000000Y-119500000D02*
X85000000Y-119500000D01*
X124000000Y-139000000D02*
X124000000Y-119500000D01*
X85000000Y-139000000D02*
X124000000Y-139000000D01*
X85000000Y-119500000D02*
X85000000Y-139000000D01*
M02*
